/Users/lacouf/Dropbox/CEGEP-AL/420-504-AL/Semaine1/ArgManBase/Tests/ArgManTest2.java
/Users/lacouf/Dropbox/CEGEP-AL/420-504-AL/Semaine1/ArgManBase/Tests/ArgManTest1.java
/Users/lacouf/Dropbox/CEGEP-AL/420-504-AL/Semaine1/ArgManBase/Tests/ArgManTest3.java
